^C:\USERS\ENDLE\SOURCE\REPOS\PROJECT2\PROJECT2\CALCAPP.CPP
/c /ZI /nologo /W3 /WX- /diagnostics:classic /Od /Oy- /D WIN32 /D _DEBUG /D _WINDOWS /D WIN32 /D _DEBUG /D _WINDOWS /D _UNICODE /D UNICODE /Gm /EHsc /RTC1 /MDd /GS /fp:precise /permissive- /Zc:wchar_t /Zc:forScope /Zc:inline /Fo"DEBUG\\" /Fd"DEBUG\VC141.PDB" /Gd /TP /analyze- C:\USERS\ENDLE\SOURCE\REPOS\PROJECT2\PROJECT2\CALCAPP.CPP
^C:\USERS\ENDLE\SOURCE\REPOS\PROJECT2\PROJECT2\MAINFRAME.CPP
/c /ZI /nologo /W3 /WX- /diagnostics:classic /Od /Oy- /D WIN32 /D _DEBUG /D _WINDOWS /D WIN32 /D _DEBUG /D _WINDOWS /D _UNICODE /D UNICODE /Gm /EHsc /RTC1 /MDd /GS /fp:precise /permissive- /Zc:wchar_t /Zc:forScope /Zc:inline /Fo"DEBUG\\" /Fd"DEBUG\VC141.PDB" /Gd /TP /analyze- C:\USERS\ENDLE\SOURCE\REPOS\PROJECT2\PROJECT2\MAINFRAME.CPP
